{ "height":1080,
 "layers":[
        {
         "image":"start\/bg-main.jpg",
         "name":"BASE_LOAD_BG",
         "opacity":1,
         "type":"imagelayer",
         "visible":true,
         "x":0,
         "y":0
        }, 
        {
         "draworder":"topdown",
         "name":"BASE_MIDDLE",
         "objects":[],
         "opacity":1,
         "type":"objectgroup",
         "visible":true,
         "x":0,
         "y":0
        }, 
        {
         "image":"..\/..\/\u0414\u043e\u043a\u0443\u043c\u0435\u043d\u0442\u0430\u0446\u0438\u044f\/game\/for-developer\/2-screen-final-rules.jpg",
         "name":"ref",
         "opacity":1,
         "properties":
            {
             "ignore":true
            },
         "propertytypes":
            {
             "ignore":"bool"
            },
         "type":"imagelayer",
         "visible":true,
         "x":0,
         "y":0
        }, 
        {
         "draworder":"index",
         "name":"BASE_UI",
         "objects":[
                {
                 "gid":2,
                 "height":53,
                 "id":1,
                 "name":"close_button",
                 "properties":
                    {
                     "buttonMode":true,
                     "interactive":true
                    },
                 "propertytypes":
                    {
                     "buttonMode":"bool",
                     "interactive":"bool"
                    },
                 "rotation":0,
                 "type":"button:close",
                 "visible":false,
                 "width":52,
                 "x":1830.73,
                 "y":80.1212
                }, 
                {
                 "gid":12,
                 "height":60,
                 "id":17,
                 "name":"full_button",
                 "properties":
                    {
                     "buttonMode":true,
                     "interactive":true
                    },
                 "propertytypes":
                    {
                     "buttonMode":"bool",
                     "interactive":"bool"
                    },
                 "rotation":0,
                 "type":"button",
                 "visible":true,
                 "width":58,
                 "x":1827,
                 "y":81.9999666666667
                }, 
                {
                 "gid":6,
                 "height":158,
                 "id":5,
                 "name":"volume_bg",
                 "rotation":0,
                 "type":"image:volume:normal",
                 "visible":true,
                 "width":40,
                 "x":1807,
                 "y":1012
                }, 
                {
                 "gid":3,
                 "height":158,
                 "id":2,
                 "name":"volume_bar",
                 "properties":
                    {
                     "reParentTo":"volume_bg"
                    },
                 "propertytypes":
                    {
                     "reParentTo":"string"
                    },
                 "rotation":0,
                 "type":"image:volume:normal:change",
                 "visible":true,
                 "width":40,
                 "x":1806.24,
                 "y":1012.45
                }, 
                {
                 "gid":4,
                 "height":55,
                 "id":3,
                 "name":"volume_normal",
                 "properties":
                    {
                     "buttonMode":true,
                     "interactive":true
                    },
                 "propertytypes":
                    {
                     "buttonMode":"bool",
                     "interactive":"bool"
                    },
                 "rotation":0,
                 "type":"button:volume:normal",
                 "visible":true,
                 "width":82,
                 "x":1805,
                 "y":1045
                }, 
                {
                 "gid":5,
                 "height":55,
                 "id":4,
                 "name":"volume_off",
                 "properties":
                    {
                     "buttonMode":true,
                     "interactive":true
                    },
                 "propertytypes":
                    {
                     "buttonMode":"bool",
                     "interactive":"bool"
                    },
                 "rotation":0,
                 "type":"button:volume:off",
                 "visible":false,
                 "width":55,
                 "x":1804,
                 "y":1043
                }, 
                {
                 "height":158,
                 "id":6,
                 "name":"volume_mask",
                 "properties":
                    {
                     "reParentTo":"volume_bg"
                    },
                 "propertytypes":
                    {
                     "reParentTo":"string"
                    },
                 "rotation":0,
                 "type":"mask",
                 "visible":true,
                 "width":42,
                 "x":1805,
                 "y":854
                }, 
                {
                 "gid":8,
                 "height":320,
                 "id":12,
                 "name":"title",
                 "rotation":0,
                 "type":"",
                 "visible":true,
                 "width":451,
                 "x":798.5,
                 "y":416
                }, 
                {
                 "gid":7,
                 "height":355,
                 "id":10,
                 "name":"progress",
                 "rotation":0,
                 "type":"",
                 "visible":true,
                 "width":355,
                 "x":770.5,
                 "y":866.5
                }],
         "opacity":1,
         "properties":
            {
             "zOrder":-10000
            },
         "propertytypes":
            {
             "zOrder":"int"
            },
         "type":"objectgroup",
         "visible":true,
         "x":0,
         "y":0
        }, 
        {
         "draworder":"index",
         "name":"RULLES",
         "objects":[
                {
                 "gid":11,
                 "height":841,
                 "id":13,
                 "name":"rules_desk",
                 "properties":
                    {
                     "interactive":true
                    },
                 "propertytypes":
                    {
                     "interactive":"bool"
                    },
                 "rotation":0,
                 "type":"box",
                 "visible":false,
                 "width":862,
                 "x":522.333,
                 "y":1028
                }, 
                {
                 "gid":10,
                 "height":135,
                 "id":14,
                 "name":"start_button",
                 "properties":
                    {
                     "buttonMode":true,
                     "interactive":true,
                     "reParentTo":"rules_desk"
                    },
                 "propertytypes":
                    {
                     "buttonMode":"bool",
                     "interactive":"bool",
                     "reParentTo":"string"
                    },
                 "rotation":0,
                 "type":"button:normal",
                 "visible":true,
                 "width":273,
                 "x":834.667,
                 "y":997.667
                }, 
                {
                 "gid":13,
                 "height":135,
                 "id":18,
                 "name":"resume_button",
                 "properties":
                    {
                     "buttonMode":true,
                     "interactive":true,
                     "reParentTo":"rules_desk"
                    },
                 "propertytypes":
                    {
                     "buttonMode":"bool",
                     "interactive":"bool",
                     "reParentTo":"string"
                    },
                 "rotation":0,
                 "type":"",
                 "visible":true,
                 "width":273,
                 "x":836,
                 "y":999
                }, 
                {
                 "height":69.3333,
                 "id":15,
                 "name":"close_rules",
                 "properties":
                    {
                     "buttonMode":true,
                     "interactive":true,
                     "reParentTo":"rules_desk"
                    },
                 "propertytypes":
                    {
                     "buttonMode":"bool",
                     "interactive":"bool",
                     "reParentTo":"string"
                    },
                 "rotation":0,
                 "type":"button",
                 "visible":true,
                 "width":69.3333,
                 "x":1318.67,
                 "y":188
                }, 
                {
                 "gid":14,
                 "height":44,
                 "id":19,
                 "name":"show_rules",
                 "properties":
                    {
                     "buttonMode":true,
                     "interactive":true
                    },
                 "propertytypes":
                    {
                     "buttonMode":"bool",
                     "interactive":"bool"
                    },
                 "rotation":0,
                 "type":"",
                 "visible":false,
                 "width":160,
                 "x":1616,
                 "y":74.6666666666667
                }],
         "opacity":1,
         "type":"objectgroup",
         "visible":true,
         "x":0,
         "y":0
        }],
 "nextobjectid":21,
 "orientation":"orthogonal",
 "properties":
    {
     "zOrder":0
    },
 "propertytypes":
    {
     "zOrder":"int"
    },
 "renderorder":"right-up",
 "tiledversion":"1.0.3",
 "tileheight":1,
 "tilesets":[
        {
         "columns":0,
         "firstgid":1,
         "grid":
            {
             "height":1,
             "orientation":"orthogonal",
             "width":1
            },
         "margin":0,
         "name":"base",
         "spacing":0,
         "tilecount":12,
         "tileheight":841,
         "tiles":
            {
             "1":
                {
                 "image":"base\/close.png",
                 "imageheight":53,
                 "imagewidth":52
                },
             "10":
                {
                 "image":"list\/rules_popup.jpg",
                 "imageheight":841,
                 "imagewidth":862
                },
             "11":
                {
                 "image":"base\/full.png",
                 "imageheight":60,
                 "imagewidth":58
                },
             "12":
                {
                 "image":"base\/button_resume.png",
                 "imageheight":135,
                 "imagewidth":273
                },
             "13":
                {
                 "image":"base\/button_rules.png",
                 "imageheight":44,
                 "imagewidth":160
                },
             "2":
                {
                 "image":"base\/sound -bar.png",
                 "imageheight":158,
                 "imagewidth":40
                },
             "3":
                {
                 "image":"base\/sound-normal.png",
                 "imageheight":55,
                 "imagewidth":82
                },
             "4":
                {
                 "image":"base\/sound-off.png",
                 "imageheight":55,
                 "imagewidth":88
                },
             "5":
                {
                 "image":"base\/sound_volume_bg.png",
                 "imageheight":158,
                 "imagewidth":40
                },
             "6":
                {
                 "image":"base\/progress.png",
                 "imageheight":355,
                 "imagewidth":355
                },
             "7":
                {
                 "image":"base\/title.png",
                 "imageheight":320,
                 "imagewidth":451
                },
             "9":
                {
                 "image":"list\/button_start.png",
                 "imageheight":135,
                 "imagewidth":273
                }
            },
         "tilewidth":862
        }],
 "tilewidth":1,
 "type":"map",
 "version":1,
 "width":1920
}