{ "height":1080,
 "layers":[
        {
         "image":"game\/bg_green.jpg",
         "name":"BG",
         "opacity":1,
         "properties":
            {
             "zOrder":-10
            },
         "propertytypes":
            {
             "zOrder":"int"
            },
         "type":"imagelayer",
         "visible":true,
         "x":0,
         "y":0
        }, 
        {
         "image":"..\/..\/\u0414\u043e\u043a\u0443\u043c\u0435\u043d\u0442\u0430\u0446\u0438\u044f\/game\/for-developer\/3-screen-final_over.jpg",
         "name":"ref",
         "opacity":1,
         "properties":
            {
             "ignore":true
            },
         "propertytypes":
            {
             "ignore":"bool"
            },
         "type":"imagelayer",
         "visible":true,
         "x":0,
         "y":0
        }, 
        {
         "draworder":"topdown",
         "name":"DOWN_UI",
         "objects":[
                {
                 "gid":5,
                 "height":525,
                 "id":2,
                 "name":"masked_glass",
                 "properties":
                    {
                     "maskedBy":"masked_glass_mask"
                    },
                 "propertytypes":
                    {
                     "maskedBy":"string"
                    },
                 "rotation":0,
                 "type":"image",
                 "visible":true,
                 "width":322,
                 "x":827.667,
                 "y":978
                }, 
                {
                 "height":408,
                 "id":3,
                 "name":"masked_glass_mask",
                 "rotation":0,
                 "type":"mask",
                 "visible":true,
                 "width":261.333,
                 "x":824,
                 "y":560
                }],
         "opacity":1,
         "properties":
            {
             "zOrder":-5
            },
         "propertytypes":
            {
             "zOrder":"int"
            },
         "type":"objectgroup",
         "visible":true,
         "x":0,
         "y":0
        }, 
        {
         "draworder":"topdown",
         "name":"SPLASH",
         "objects":[],
         "opacity":1,
         "type":"objectgroup",
         "visible":true,
         "x":0,
         "y":0
        }, 
        {
         "draworder":"topdown",
         "name":"DOWN",
         "objects":[],
         "opacity":1,
         "type":"objectgroup",
         "visible":true,
         "x":0,
         "y":0
        }, 
        {
         "draworder":"topdown",
         "name":"MIDDLE",
         "objects":[],
         "opacity":1,
         "type":"objectgroup",
         "visible":true,
         "x":0,
         "y":0
        }, 
        {
         "draworder":"topdown",
         "name":"UP",
         "objects":[],
         "opacity":1,
         "type":"objectgroup",
         "visible":true,
         "x":0,
         "y":0
        }, 
        {
         "draworder":"topdown",
         "name":"UP_SPLASH",
         "objects":[],
         "opacity":1,
         "type":"objectgroup",
         "visible":true,
         "x":0,
         "y":0
        }, 
        {
         "draworder":"index",
         "name":"UI",
         "objects":[
                {
                 "gid":8,
                 "height":48,
                 "id":6,
                 "name":"score_star",
                 "rotation":0,
                 "type":"image",
                 "visible":true,
                 "width":47,
                 "x":47.1667,
                 "y":96
                }, 
                {
                 "height":112,
                 "id":8,
                 "name":"score_text",
                 "properties":
                    {
                     "fontPadding":30
                    },
                 "propertytypes":
                    {
                     "fontPadding":"int"
                    },
                 "rotation":0,
                 "text":
                    {
                     "color":"#ffffff",
                     "fontfamily":"Amatic SC",
                     "pixelsize":91,
                     "text":"50",
                     "valign":"bottom",
                     "wrap":true
                    },
                 "type":"text",
                 "visible":true,
                 "width":121,
                 "x":98.1666,
                 "y":11.1667
                }, 
                {
                 "gid":2,
                 "height":135,
                 "id":9,
                 "name":"timer_bg",
                 "rotation":0,
                 "type":"",
                 "visible":true,
                 "width":99,
                 "x":47,
                 "y":1037.67
                }, 
                {
                 "gid":4,
                 "height":100,
                 "id":11,
                 "name":"timer_ring",
                 "properties":
                    {
                     "reParentTo":"timer_bg"
                    },
                 "propertytypes":
                    {
                     "reParentTo":"string"
                    },
                 "rotation":0,
                 "type":"masked",
                 "visible":true,
                 "width":99,
                 "x":46.6667,
                 "y":1038
                }, 
                {
                 "gid":7,
                 "height":70,
                 "id":13,
                 "name":"button_play",
                 "properties":
                    {
                     "buttonMode":true,
                     "interactive":true
                    },
                 "propertytypes":
                    {
                     "buttonMode":"bool",
                     "interactive":"bool"
                    },
                 "rotation":0,
                 "type":"button:play",
                 "visible":true,
                 "width":166,
                 "x":883.667,
                 "y":1047
                }, 
                {
                 "gid":6,
                 "height":70,
                 "id":14,
                 "name":"button_pause",
                 "rotation":0,
                 "type":"button:pause",
                 "visible":false,
                 "width":149,
                 "x":883.333,
                 "y":1047
                }, 
                {
                 "gid":9,
                 "height":498,
                 "id":16,
                 "name":"time_over_desk",
                 "rotation":0,
                 "type":"",
                 "visible":false,
                 "width":862,
                 "x":523.667,
                 "y":687.667
                }, 
                {
                 "gid":12,
                 "height":135,
                 "id":19,
                 "name":"restart_game",
                 "properties":
                    {
                     "buttonMode":true,
                     "interactive":true,
                     "reParentTo":"time_over_desk"
                    },
                 "propertytypes":
                    {
                     "buttonMode":"bool",
                     "interactive":"bool",
                     "reParentTo":"string"
                    },
                 "rotation":0,
                 "type":"button",
                 "visible":true,
                 "width":273,
                 "x":837.333,
                 "y":627
                }, 
                {
                 "height":70.6667,
                 "id":17,
                 "name":"close_desk",
                 "properties":
                    {
                     "buttonMode":true,
                     "interactive":true,
                     "reParentTo":"time_over_desk"
                    },
                 "propertytypes":
                    {
                     "buttonMode":"bool",
                     "interactive":"bool",
                     "reParentTo":"string"
                    },
                 "rotation":0,
                 "type":"",
                 "visible":true,
                 "width":78.6667,
                 "x":1302.67,
                 "y":193.333
                }, 
                {
                 "gid":11,
                 "height":248,
                 "id":15,
                 "name":"title_static",
                 "rotation":0,
                 "type":"image",
                 "visible":true,
                 "width":229,
                 "x":855.333,
                 "y":245.333
                }],
         "opacity":1,
         "properties":
            {
             "zOrder":-10
            },
         "propertytypes":
            {
             "zOrder":"int"
            },
         "type":"objectgroup",
         "visible":true,
         "x":0,
         "y":0
        }, 
        {
         "draworder":"topdown",
         "name":"UI_text",
         "objects":[
                {
                 "height":57,
                 "id":22,
                 "name":"timer_text",
                 "properties":
                    {
                     "fontPadding":30
                    },
                 "propertytypes":
                    {
                     "fontPadding":"int"
                    },
                 "rotation":0,
                 "text":
                    {
                     "color":"#ffffff",
                     "fontfamily":"Amatic SC",
                     "halign":"center",
                     "pixelsize":40,
                     "text":"0:40",
                     "valign":"center",
                     "wrap":true
                    },
                 "type":"text",
                 "visible":true,
                 "width":71,
                 "x":58.5,
                 "y":967.5
                }, 
                {
                 "gid":3,
                 "height":107,
                 "id":23,
                 "name":"timer_marks",
                 "properties":
                    {
                     "reParentTo":"timer_bg"
                    },
                 "propertytypes":
                    {
                     "reParentTo":"string"
                    },
                 "rotation":0,
                 "type":"",
                 "visible":true,
                 "width":107,
                 "x":43.1666666666667,
                 "y":1042.5
                }],
         "opacity":1,
         "type":"objectgroup",
         "visible":true,
         "x":0,
         "y":0
        }],
 "nextobjectid":24,
 "orientation":"orthogonal",
 "renderorder":"right-up",
 "tiledversion":"1.0.3",
 "tileheight":1,
 "tilesets":[
        {
         "columns":0,
         "firstgid":1,
         "grid":
            {
             "height":1,
             "orientation":"orthogonal",
             "width":1
            },
         "margin":0,
         "name":"game_sources",
         "spacing":0,
         "tilecount":11,
         "tileheight":1080,
         "tiles":
            {
             "0":
                {
                 "image":"game\/bg_green.jpg",
                 "imageheight":1080,
                 "imagewidth":1920
                },
             "1":
                {
                 "image":"game\/clock_bg.png",
                 "imageheight":135,
                 "imagewidth":99
                },
             "10":
                {
                 "image":"game\/title_game_static.png",
                 "imageheight":248,
                 "imagewidth":229
                },
             "11":
                {
                 "image":"list\/button_start.png",
                 "imageheight":135,
                 "imagewidth":273
                },
             "2":
                {
                 "image":"game\/clock_marks.png",
                 "imageheight":107,
                 "imagewidth":107
                },
             "3":
                {
                 "image":"game\/clock_ring.png",
                 "imageheight":100,
                 "imagewidth":99
                },
             "4":
                {
                 "image":"game\/glass_2.png",
                 "imageheight":525,
                 "imagewidth":322
                },
             "5":
                {
                 "image":"game\/pause_button.png",
                 "imageheight":70,
                 "imagewidth":149
                },
             "6":
                {
                 "image":"game\/play_button.png",
                 "imageheight":70,
                 "imagewidth":166
                },
             "7":
                {
                 "image":"game\/score_star.png",
                 "imageheight":48,
                 "imagewidth":47
                },
             "8":
                {
                 "image":"game\/time_over.jpg",
                 "imageheight":498,
                 "imagewidth":862
                }
            },
         "tilewidth":1920
        }],
 "tilewidth":1,
 "type":"map",
 "version":1,
 "width":1920
}